…
This report collects information about COVID-19 cases in Toronto. It analyzes some groups that are likely to be infected by the virus, after which to raise their awareness and better prevent this virus’s spread. And we did find out that certain age groups and gender are more susceptible.

Introduction

We use Wickham et al. (2019) and (“COVID19 Cases in Toronto” 2020) and Wickham (2016).

2020 is a catastrophic year for almost everybody due to the widespread of the novel virus. To better recover from this disaster, I believe the first step, which is also the most fundamental step, is to contain the spreading. And this is precisely the aim of this report. Raising people’s awareness and exposing them with scientific data. Specifically, we used data collected by ‘Toronto Public Health’ and found that men in their 20s and women in their 20s and 50s tend to be infected by the virus than other groups. Thus, if you unfortunately match the description of these people, please pay more attention to the virus and care more about yourself, for the sake of your own well-being and the development of this great society.

Data discussion

The data set we used is called “COVID-19 Cases in Toronto”, and it is from the Toronto Open Data Portal. Considering the comprehensive information it contains about COVID-19 cases in Toronto, we decided to use it in our later analysis.

Data of covid-19 cases in Canada

## # A tibble: 17,872 x 18
##     `_id` Assigned_ID `Outbreak Assoc… `Age Group` `Neighbourhood … FSA  
##     <int>       <int> <chr>            <chr>       <chr>            <chr>
##  1 143647           1 Sporadic         50 to 59 Y… Willowdale East  M2N  
##  2 143648           2 Sporadic         50 to 59 Y… Willowdale East  M2N  
##  3 143649           3 Sporadic         20 to 29 Y… Parkwoods-Donal… M3A  
##  4 143650           4 Sporadic         60 to 69 Y… Church-Yonge Co… M4W  
##  5 143651           5 Sporadic         60 to 69 Y… Church-Yonge Co… M4W  
##  6 143652           6 Sporadic         50 to 59 Y… Newtonbrook West M2R  
##  7 143653           7 Sporadic         80 to 89 Y… Milliken         M1V  
##  8 143654           8 Sporadic         60 to 69 Y… Willowdale West  M2N  
##  9 143655           9 Sporadic         50 to 59 Y… Willowdale East  M2N  
## 10 143656          10 Sporadic         60 to 69 Y… Henry Farm       M2J  
## # … with 17,862 more rows, and 12 more variables: `Source of Infection` <chr>,
## #   Classification <chr>, `Episode Date` <chr>, `Reported Date` <chr>, `Client
## #   Gender` <chr>, Outcome <chr>, `Currently Hospitalized` <chr>, `Currently in
## #   ICU` <chr>, `Currently Intubated` <chr>, `Ever Hospitalized` <chr>, `Ever
## #   in ICU` <chr>, `Ever Intubated` <chr>
…
