Introduction - Haoming Hu's website
…
covid19_cases_packages <- search_packages("COVID-19 Cases in Toronto")
covid19_cases_resources <- covid19_cases_packages %>% list_package_resources()
covid19_cases_resources # Get the resources that I am interested in
## # A tibble: 1 x 4
##   name          id                                   format last_modified
##   <chr>         <chr>                                <chr>  <date>       
## 1 COVID19 cases e5bf35bc-e681-43da-b2ce-0242d00922ad CSV    2020-09-16

covid19_cases_statistics <- covid19_cases_resources %>% get_resource()
covid19_cases_statistics # Store all the information into the variable and wait for later analysis
## # A tibble: 16,942 x 18
##     `_id` Assigned_ID `Outbreak Assoc… `Age Group` `Neighbourhood … FSA  
##     <int>       <int> <chr>            <chr>       <chr>            <chr>
##  1 126705           1 Sporadic         50 to 59 Y… Willowdale East  M2N  
##  2 126706           2 Sporadic         50 to 59 Y… Willowdale East  M2N  
##  3 126707           3 Sporadic         20 to 29 Y… Parkwoods-Donal… M3A  
##  4 126708           4 Sporadic         60 to 69 Y… Church-Yonge Co… M4W  
##  5 126709           5 Sporadic         60 to 69 Y… Church-Yonge Co… M4W  
##  6 126710           6 Sporadic         50 to 59 Y… Newtonbrook West M2R  
##  7 126711           7 Sporadic         80 to 89 Y… Milliken         M1V  
##  8 126712           8 Sporadic         60 to 69 Y… Willowdale West  M2N  
##  9 126713           9 Sporadic         50 to 59 Y… Willowdale East  M2N  
## 10 126714          10 Sporadic         60 to 69 Y… Henry Farm       M2J  
## # … with 16,932 more rows, and 12 more variables: `Source of Infection` <chr>,
## #   Classification <chr>, `Episode Date` <chr>, `Reported Date` <chr>, `Client
## #   Gender` <chr>, Outcome <chr>, `Currently Hospitalized` <chr>, `Currently in
## #   ICU` <chr>, `Currently Intubated` <chr>, `Ever Hospitalized` <chr>, `Ever
## #   in ICU` <chr>, `Ever Intubated` <chr>
…
