People that are more likely to be affected by COVID-19 - Haoming Hu's website
…
After loading all these library, we created a variable ‘packages’ to store all the packages from the original data resources for later manipulation.

covid19_cases_packages <- search_packages("COVID-19 Cases in Toronto")
covid19_cases_resources <- covid19_cases_packages %>% list_package_resources() # Get the resources that I am interested in

covid19_cases_statistics <- covid19_cases_resources %>% get_resource()
covid19_cases_statistics # Store all the information into the variable and wait for later analysis
## # A tibble: 17,872 x 18
##     `_id` Assigned_ID `Outbreak Assoc… `Age Group` `Neighbourhood … FSA  
##     <int>       <int> <chr>            <chr>       <chr>            <chr>
##  1 143647           1 Sporadic         50 to 59 Y… Willowdale East  M2N  
##  2 143648           2 Sporadic         50 to 59 Y… Willowdale East  M2N  
##  3 143649           3 Sporadic         20 to 29 Y… Parkwoods-Donal… M3A  
##  4 143650           4 Sporadic         60 to 69 Y… Church-Yonge Co… M4W  
##  5 143651           5 Sporadic         60 to 69 Y… Church-Yonge Co… M4W  
##  6 143652           6 Sporadic         50 to 59 Y… Newtonbrook West M2R  
##  7 143653           7 Sporadic         80 to 89 Y… Milliken         M1V  
##  8 143654           8 Sporadic         60 to 69 Y… Willowdale West  M2N  
##  9 143655           9 Sporadic         50 to 59 Y… Willowdale East  M2N  
## 10 143656          10 Sporadic         60 to 69 Y… Henry Farm       M2J  
## # … with 17,862 more rows, and 12 more variables: `Source of Infection` <chr>,
## #   Classification <chr>, `Episode Date` <chr>, `Reported Date` <chr>, `Client
## #   Gender` <chr>, Outcome <chr>, `Currently Hospitalized` <chr>, `Currently in
## #   ICU` <chr>, `Currently Intubated` <chr>, `Ever Hospitalized` <chr>, `Ever
## #   in ICU` <chr>, `Ever Intubated` <chr>
…
